module devtools.invalid

go 1.19

require (
	github.com/cortesi/modd v0.0.0-20211215124449-6083f9d1c171
	github.com/go-task/task/v3 v3.18.0
	github.com/golang/mock v1.6.0
	github.com/golang/protobuf v1.5.2
	github.com/pseudomuto/protoc-gen-doc v1.5.1
	google.golang.org/grpc/cmd/protoc-gen-go-grpc v1.2.0
	google.golang.org/protobuf v1.28.1
)

require (
	github.com/Masterminds/goutils v1.1.1 // indirect
	github.com/Masterminds/semver v1.5.0 // indirect
	github.com/Masterminds/sprig v2.22.0+incompatible // indirect
	github.com/alecthomas/template v0.0.0-20190718012654-fb15b899a751 // indirect
	github.com/alecthomas/units v0.0.0-20211218093645-b94a6e3cc137 // indirect
	github.com/bmatcuk/doublestar v1.3.4 // indirect
	github.com/cortesi/moddwatch v0.0.0-20210323234936-df014e95c743 // indirect
	github.com/cortesi/termlog v0.0.0-20210222042314-a1eec763abec // indirect
	github.com/envoyproxy/protoc-gen-validate v0.9.0 // indirect
	github.com/fatih/color v1.13.0 // indirect
	github.com/go-task/slim-sprig v0.0.0-20210107165309-348f09dbbbc0 // indirect
	github.com/gogo/protobuf v1.3.2 // indirect
	github.com/google/uuid v1.3.0 // indirect
	github.com/huandu/xstrings v1.3.3 // indirect
	github.com/imdario/mergo v0.3.13 // indirect
	github.com/joho/godotenv v1.4.0 // indirect
	github.com/mattn/go-colorable v0.1.13 // indirect
	github.com/mattn/go-isatty v0.0.16 // indirect
	github.com/mattn/go-zglob v0.0.4 // indirect
	github.com/mitchellh/copystructure v1.2.0 // indirect
	github.com/mitchellh/hashstructure/v2 v2.0.2 // indirect
	github.com/mitchellh/reflectwalk v1.0.2 // indirect
	github.com/mwitkow/go-proto-validators v0.3.2 // indirect
	github.com/pseudomuto/protokit v0.2.1 // indirect
	github.com/radovskyb/watcher v1.0.7 // indirect
	github.com/rjeczalik/notify v0.0.0-20181126183243-629144ba06a1 // indirect
	github.com/sajari/fuzzy v1.0.0 // indirect
	github.com/spf13/pflag v1.0.5 // indirect
	golang.org/x/crypto v0.3.0 // indirect
	golang.org/x/exp v0.0.0-20221114191408-850992195362 // indirect
	golang.org/x/mod v0.7.0 // indirect
	golang.org/x/net v0.2.0 // indirect
	golang.org/x/sync v0.1.0 // indirect
	golang.org/x/sys v0.2.0 // indirect
	golang.org/x/term v0.2.0 // indirect
	golang.org/x/tools v0.3.0 // indirect
	google.golang.org/genproto v0.0.0-20221118155620-16455021b5e6 // indirect
	gopkg.in/alecthomas/kingpin.v2 v2.2.6 // indirect
	gopkg.in/yaml.v3 v3.0.1 // indirect
	mvdan.cc/sh/v3 v3.6.0-0.dev.0.20220704111049-a6e3029cd899 // indirect
)
